{"name": "Roxanne","lastname": "Balit"}
{"name": "Hilda","lastname": "Lopez"}
{"name": "Pedro","lastname": "Delmonte"}
{"name": "Jeroen","lastname": "VH"}
{"name": "Nicolas","lastname": "Balit"}
{"name": "Anne-Marie","lastname": "Duchesneau"}
{"name": "Jules","lastname": "Jules"}